[485],736,472,483,752,281.25,281.36,-491.77,44,41,0.100000,0.050000,0.002500
[485],752,455,499,728,281.40,281.48,-602.21,45,40,0.100000,0.050000,0.002500
[485],775,441,508,696,281.51,281.59,-726.33,45,38,0.100000,0.050000,0.002500
[485],775,440,529,655,281.69,281.70,-861.96,46,37,0.100000,0.050000,0.002500
[485],799,423,543,639,281.80,281.81,-1011.37,46,36,0.100000,0.050000,0.002500
[485],799,428,560,620,281.82,281.92,-1172.27,46,35,0.100000,0.050000,0.002500
[485],799,423,575,608,281.95,282.04,-1200.00,46,34,0.100000,0.050000,0.002500
[485],799,423,591,575,282.08,282.15,-1200.00,46,33,0.100000,0.050000,0.002500
[485],803,423,608,563,282.17,282.26,-1032.19,46,32,0.100000,0.050000,0.002500
[485],807,423,636,551,282.26,282.38,-873.77,46,30,0.100000,0.050000,0.002500
[485],807,423,655,511,282.39,282.49,-725.74,45,29,0.100000,0.050000,0.002500
[485],782,430,670,487,282.55,282.60,-590.31,45,28,0.100000,0.050000,0.002500
[485],780,432,686,472,282.59,282.71,-467.57,44,27,0.100000,0.050000,0.002500
[485],768,448,704,455,282.72,282.82,-353.02,43,26,0.100000,0.050000,0.002500
[485],739,462,718,440,282.85,282.94,-251.07,43,25,0.100000,0.050000,0.002500
[485],739,462,737,423,282.94,283.05,-160.71,42,24,0.100000,0.050000,0.002500
[485],719,476,743,403,283.05,283.16,-80.74,41,23,0.100000,0.050000,0.002500
[485],704,487,768,384,283.14,283.27,-11.27,40,23,0.100000,0.050000,0.002500
[485],684,504,768,387,283.21,283.39,47.81,38,22,0.100000,0.050000,0.002500
[485],639,527,783,376,283.36,283.50,97.59,37,22,0.100000,0.050000,0.002500
[485],625,543,783,376,283.51,283.61,134.69,36,22,0.100000,0.050000,0.002500
[485],608,560,783,376,283.56,283.73,158.09,35,21,0.100000,0.050000,0.002500
[485],590,574,799,359,283.71,283.84,173.29,34,21,0.100000,0.050000,0.002500
[485],572,588,799,359,283.73,283.95,175.81,33,21,0.100000,0.050000,0.002500
[485],551,604,792,353,283.89,284.06,171.22,32,21,0.100000,0.050000,0.002500
[485],531,615,796,359,284.00,284.17,153.95,30,22,0.100000,0.050000,0.002500
[485],496,639,780,391,284.19,284.29,125.18,29,22,0.100000,0.050000,0.002500
[485],476,664,768,384,284.28,284.40,80.53,28,23,0.100000,0.050000,0.002500
[485],455,675,748,398,284.37,284.51,26.48,27,23,0.100000,0.050000,0.002500
[485],440,689,768,398,284.44,284.63,-37.97,26,24,0.100000,0.050000,0.002500
[485],419,705,743,415,284.57,284.74,-111.71,25,25,0.100000,0.050000,0.002500
[485],399,728,732,440,284.68,284.85,-197.04,24,26,0.100000,0.050000,0.002500
[485],384,737,711,463,284.83,284.96,-293.86,23,27,0.100000,0.050000,0.002500
[485],359,768,704,472,284.96,285.07,-403.38,23,28,0.100000,0.050000,0.002500
[485],359,760,679,504,285.05,285.19,-525.49,22,29,0.100000,0.050000,0.002500
[485],344,769,668,508,285.14,285.30,-657.99,22,30,0.100000,0.050000,0.002500
[485],344,775,654,527,285.16,285.41,-799.89,22,31,0.100000,0.050000,0.002500
[485],344,775,624,542,285.29,285.52,-948.88,21,33,0.100000,0.050000,0.002500
[485],319,792,591,575,285.53,285.64,-1110.47,21,34,0.100000,0.050000,0.002500
[485],319,792,591,600,285.58,285.75,-1200.00,21,35,0.100000,0.050000,0.002500
[485],319,792,575,615,285.67,285.86,-1200.00,21,36,0.100000,0.050000,0.002500
[485],319,796,560,636,285.71,285.98,-1200.00,22,37,0.100000,0.050000,0.002500
[485],335,775,536,652,285.91,286.09,-1200.00,22,38,0.100000,0.050000,0.002500
[485],335,775,529,671,285.95,286.20,-1200.00,23,39,0.100000,0.050000,0.002500
[485],353,768,515,689,286.04,286.31,-1200.00,23,40,0.100000,0.050000,0.002500
[485],353,768,496,711,286.11,286.42,-1200.00,24,42,0.100000,0.050000,0.002500
[485],371,748,473,743,286.35,286.54,-1200.00,25,43,0.100000,0.050000,0.002500
[485],391,736,451,768,286.41,286.65,-1200.00,26,43,0.100000,0.050000,0.002500
[485],408,718,451,768,286.55,286.76,-1200.00,27,44,0.100000,0.050000,0.002500
[485],423,704,440,783,286.61,286.88,-1200.00,28,45,0.100000,0.050000,0.002500
[485],448,688,428,816,286.77,286.99,-1200.00,29,45,0.100000,0.050000,0.002500
[485],463,671,440,816,286.83,287.10,-1200.00,30,46,0.100000,0.050000,0.002500
[485],480,655,423,812,286.90,287.21,-1200.00,31,46,0.100000,0.050000,0.002500
[485],497,639,415,807,287.03,287.32,-1200.00,33,46,0.100000,0.050000,0.002500
[485],536,615,428,806,287.23,287.44,-1178.38,34,46,0.100000,0.050000,0.002500
[485],556,600,419,807,287.34,287.55,-1171.65,35,46,0.100000,0.050000,0.002500
[485],575,583,430,807,287.42,287.66,-1176.41,36,46,0.100000,0.050000,0.002500
[485],591,572,432,807,287.51,287.77,-1190.56,37,46,0.100000,0.050000,0.002500
[485],611,556,432,807,287.60,287.89,-1200.00,38,45,0.100000,0.050000,0.002500
[485],632,542,432,812,287.75,288.00,-1200.00,39,45,0.100000,0.050000,0.002500
[485],652,527,448,814,287.84,288.11,-1200.00,40,44,0.100000,0.050000,0.002500
[485],671,512,455,799,287.97,288.23,-1200.00,42,43,0.100000,0.050000,0.002500
[485],711,483,472,760,288.26,288.34,-1200.00,43,43,0.100000,0.050000,0.002500
[485],732,472,472,768,288.26,288.45,-1200.00,43,42,0.100000,0.050000,0.002500
[485],732,472,483,748,288.35,288.56,-1200.00,44,41,0.100000,0.050000,0.002500
[485],752,455,494,711,288.48,288.67,-1200.00,45,40,0.100000,0.050000,0.002500
[485],771,440,504,696,288.63,288.79,-1200.00,45,38,0.100000,0.050000,0.002500
[485],775,444,543,671,288.83,288.90,-1200.00,46,37,0.100000,0.050000,0.002500
[485],798,419,543,639,288.90,289.01,-1200.00,46,36,0.100000,0.050000,0.002500
[485],799,432,560,615,288.96,289.13,-1200.00,46,35,0.100000,0.050000,0.002500
[485],799,432,590,604,289.03,289.24,-1200.00,46,34,0.100000,0.050000,0.002500
[485],799,428,591,575,289.18,289.35,-1200.00,46,33,0.100000,0.050000,0.002500
[485],799,428,615,575,289.25,289.46,-1026.69,46,32,0.100000,0.050000,0.002500
[485],799,428,624,543,289.38,289.57,-861.68,46,30,0.100000,0.050000,0.002500
[485],799,423,664,512,289.51,289.69,-709.26,45,29,0.100000,0.050000,0.002500
[485],775,440,671,492,289.62,289.80,-569.44,45,28,0.100000,0.050000,0.002500
[485],775,440,696,480,289.71,289.91,-440.10,44,27,0.100000,0.050000,0.002500
[485],768,449,704,463,289.80,290.02,-321.16,43,26,0.100000,0.050000,0.002500
[485],739,463,719,440,289.93,290.14,-212.62,43,25,0.100000,0.050000,0.002500
[485],736,462,728,423,290.00,290.25,-115.67,42,24,0.100000,0.050000,0.002500
[485],719,472,743,408,290.15,290.36,-28.01,41,23,0.100000,0.050000,0.002500
[485],704,487,768,391,290.24,290.48,46.96,40,23,0.100000,0.050000,0.002500
[485],679,504,768,391,290.30,290.59,111.53,38,22,0.100000,0.050000,0.002500
[485],639,527,775,371,290.50,290.70,166.81,37,22,0.100000,0.050000,0.002500
[485],625,543,782,384,290.54,290.81,207.20,36,22,0.100000,0.050000,0.002500
[485],608,560,783,376,290.63,290.92,239.39,35,21,0.100000,0.050000,0.002500
[485],590,572,785,359,290.83,291.04,261.18,34,21,0.100000,0.050000,0.002500
[485],568,583,796,364,290.92,291.15,268.09,33,21,0.100000,0.050000,0.002500
[485],551,600,792,359,290.92,291.26,264.61,32,21,0.100000,0.050000,0.002500
[485],531,615,796,359,291.07,291.38,256.12,30,22,0.100000,0.050000,0.002500
[485],496,639,775,387,291.27,291.49,233.95,29,22,0.100000,0.050000,0.002500
[485],476,664,775,384,291.34,291.60,195.88,28,23,0.100000,0.050000,0.002500
[485],455,679,768,399,291.49,291.71,149.52,27,23,0.100000,0.050000,0.002500
[485],440,689,743,399,291.53,291.82,89.47,26,24,0.100000,0.050000,0.002500
[485],419,707,743,419,291.67,291.94,21.23,25,25,0.100000,0.050000,0.002500
[485],399,723,729,440,291.80,292.05,-58.61,24,26,0.100000,0.050000,0.002500
[485],384,737,700,451,291.93,292.16,-151.04,23,27,0.100000,0.050000,0.002500
[485],359,768,704,472,292.08,292.27,-255.06,23,28,0.100000,0.050000,0.002500
[485],359,768,684,487,292.13,292.39,-372.78,22,29,0.100000,0.050000,0.002500
[485],344,769,664,519,292.24,292.50,-498.69,22,30,0.100000,0.050000,0.002500
[485],344,771,647,519,292.37,292.61,-635.09,22,31,0.100000,0.050000,0.002500
[485],344,769,636,551,292.48,292.73,-784.09,21,33,0.100000,0.050000,0.002500
[485],319,792,600,575,292.59,292.84,-944.57,21,34,0.100000,0.050000,0.002500
[485],319,792,575,600,292.70,292.95,-1115.56,21,35,0.100000,0.050000,0.002500
[485],319,792,568,611,292.81,293.06,-1200.00,21,36,0.100000,0.050000,0.002500
[485],319,792,560,639,292.90,293.17,-1200.00,22,37,0.100000,0.050000,0.002500
[485],339,775,543,654,292.98,293.29,-1200.00,22,38,0.100000,0.050000,0.002500
[485],335,775,527,671,293.03,293.40,-1200.00,23,39,0.100000,0.050000,0.002500
[485],353,768,515,688,293.14,293.51,-1200.00,23,40,0.100000,0.050000,0.002500
[485],355,768,496,704,293.27,293.63,-1200.00,24,42,0.100000,0.050000,0.002500
[485],376,743,476,743,293.44,293.74,-1200.00,25,43,0.100000,0.050000,0.002500
[485],391,736,455,768,293.53,293.85,-1200.00,26,43,0.100000,0.050000,0.002500
[485],408,711,449,768,293.58,293.96,-1200.00,27,44,0.100000,0.050000,0.002500
[485],428,704,448,792,293.71,294.07,-1200.00,28,45,0.100000,0.050000,0.002500
[485],448,688,432,816,293.84,294.19,-1200.00,29,45,0.100000,0.050000,0.002500
[485],463,671,440,816,293.88,294.30,-1200.00,30,46,0.100000,0.050000,0.002500
[485],480,655,415,807,294.08,294.41,-1200.00,31,46,0.100000,0.050000,0.002500
[485],497,639,423,807,294.10,294.52,-1200.00,33,46,0.100000,0.050000,0.002500
[485],536,615,423,807,294.32,294.64,-1171.79,34,46,0.100000,0.050000,0.002500
[485],556,600,419,807,294.41,294.75,-1159.56,35,46,0.100000,0.050000,0.002500
[485],575,583,415,807,294.50,294.86,-1157.73,36,46,0.100000,0.050000,0.002500
[485],591,572,432,807,294.63,294.98,-1165.29,37,46,0.100000,0.050000,0.002500
[485],611,558,419,807,294.72,295.09,-1185.45,38,45,0.100000,0.050000,0.002500
[485],632,531,432,812,294.83,295.20,-1200.00,39,45,0.100000,0.050000,0.002500
[485],647,527,448,807,294.94,295.31,-1200.00,40,44,0.100000,0.050000,0.002500
[485],671,512,455,775,295.07,295.42,-1200.00,42,43,0.100000,0.050000,0.002500
[485],711,483,463,752,295.29,295.54,-1200.00,43,43,0.100000,0.050000,0.002500
[485],728,472,462,752,295.29,295.65,-1200.00,43,42,0.100000,0.050000,0.002500
[485],732,472,487,748,295.47,295.76,-1200.00,44,41,0.100000,0.050000,0.002500
[485],752,455,492,711,295.55,295.88,-1200.00,45,40,0.100000,0.050000,0.002500
[485],771,448,513,696,295.73,295.99,-1200.00,45,38,0.100000,0.050000,0.002500
[485],775,448,536,664,295.84,296.10,-1200.00,46,37,0.100000,0.050000,0.002500
[485],798,432,543,639,295.99,296.21,-1200.00,46,36,0.100000,0.050000,0.002500
[485],798,423,560,622,296.06,296.32,-1200.00,46,35,0.100000,0.050000,0.002500
[485],796,432,590,615,296.17,296.44,-1200.00,46,34,0.100000,0.050000,0.002500
[485],799,432,591,583,296.26,296.55,-1200.00,46,33,0.100000,0.050000,0.002500
[485],799,430,615,574,296.32,296.66,-1021.20,46,32,0.100000,0.050000,0.002500
[485],799,428,625,543,296.46,296.77,-850.70,46,30,0.100000,0.050000,0.002500
[485],803,428,664,513,296.59,296.89,-692.78,45,29,0.100000,0.050000,0.002500
[485],775,440,679,496,296.72,297.00,-547.46,45,28,0.100000,0.050000,0.002500
[485],775,432,684,476,296.78,297.11,-413.74,44,27,0.100000,0.050000,0.002500
[485],768,449,704,451,296.96,297.23,-289.30,43,26,0.100000,0.050000,0.002500
[485],739,463,721,440,297.00,297.34,-179.66,43,25,0.100000,0.050000,0.002500
[485],737,463,732,423,297.05,297.45,-77.21,42,24,0.100000,0.050000,0.002500
[485],719,478,751,399,297.25,297.56,17.04,41,23,0.100000,0.050000,0.002500
[485],704,487,768,391,297.33,297.67,96.40,40,23,0.100000,0.050000,0.002500
[485],679,504,768,391,297.36,297.79,165.36,38,22,0.100000,0.050000,0.002500
[485],639,527,775,376,297.60,297.90,227.23,37,22,0.100000,0.050000,0.002500
[485],625,543,782,384,297.71,298.01,272.02,36,22,0.100000,0.050000,0.002500
[485],608,558,775,384,297.80,298.13,305.31,35,21,0.100000,0.050000,0.002500
[485],588,574,798,359,297.88,298.24,328.20,34,21,0.100000,0.050000,0.002500
[485],572,583,782,359,297.93,298.35,341.70,33,21,0.100000,0.050000,0.002500
[485],551,600,792,364,298.08,298.46,347.01,32,21,0.100000,0.050000,0.002500
[485],531,615,780,359,298.15,298.57,339.62,30,22,0.100000,0.050000,0.002500
[485],496,639,775,384,298.41,298.69,322.94,29,22,0.100000,0.050000,0.002500
[485],480,664,775,384,298.43,298.80,287.07,28,23,0.100000,0.050000,0.002500
[485],455,675,768,399,298.61,298.91,245.11,27,23,0.100000,0.050000,0.002500
[485],440,691,743,399,298.61,299.02,188.35,26,24,0.100000,0.050000,0.002500
[485],419,705,743,415,298.78,299.14,125.60,25,25,0.100000,0.050000,0.002500
[485],399,719,728,448,298.92,299.25,49.05,24,26,0.100000,0.050000,0.002500
[485],384,737,696,451,299.07,299.36,-40.08,23,27,0.100000,0.050000,0.002500
[485],359,752,696,483,299.20,299.48,-141.91,23,28,0.100000,0.050000,0.002500
[485],359,760,679,487,299.20,299.59,-256.32,22,29,0.100000,0.050000,0.002500
[485],344,768,664,519,299.33,299.70,-376.74,22,30,0.100000,0.050000,0.002500
[485],344,769,639,524,299.40,299.81,-508.75,22,31,0.100000,0.050000,0.002500
[485],344,771,624,542,299.49,299.92,-650.05,21,33,0.100000,0.050000,0.002500
[485],319,787,591,575,299.69,300.04,-801.75,21,34,0.100000,0.050000,0.002500
[485],319,792,575,600,299.77,300.15,-968.34,21,35,0.100000,0.050000,0.002500
[485],319,792,575,615,299.90,300.26,-1145.32,21,36,0.100000,0.050000,0.002500
[485],319,792,560,636,299.95,300.38,-1200.00,22,37,0.100000,0.050000,0.002500
[485],339,775,536,655,300.08,300.49,-1200.00,22,38,0.100000,0.050000,0.002500
[485],339,775,527,668,300.15,300.60,-1200.00,23,39,0.100000,0.050000,0.002500
[485],355,768,510,689,300.23,300.71,-1200.00,23,40,0.100000,0.050000,0.002500
[485],355,768,494,707,300.28,300.82,-1200.00,24,42,0.100000,0.050000,0.002500
[485],376,748,472,743,300.45,300.94,-1200.00,25,43,0.100000,0.050000,0.002500
[485],391,732,455,768,300.56,301.05,-1200.00,26,43,0.100000,0.050000,0.002500
[485],412,718,455,768,300.65,301.16,-1200.00,27,44,0.100000,0.050000,0.002500
[485],428,704,449,792,300.81,301.27,-1200.00,28,45,0.100000,0.050000,0.002500
[485],448,688,430,816,300.89,301.39,-1200.00,29,45,0.100000,0.050000,0.002500
[485],463,671,440,816,301.03,301.50,-1200.00,30,46,0.100000,0.050000,0.002500
[485],480,655,423,807,301.18,301.61,-1200.00,31,46,0.100000,0.050000,0.002500
[485],499,639,415,807,301.16,301.73,-1200.00,33,46,0.100000,0.050000,0.002500
[485],536,615,430,807,301.40,301.84,-1165.20,34,46,0.100000,0.050000,0.002500
[485],556,600,415,807,301.49,301.95,-1147.48,35,46,0.100000,0.050000,0.002500
[485],575,583,419,807,301.62,302.06,-1140.15,36,46,0.100000,0.050000,0.002500
[485],591,572,423,807,301.68,302.17,-1144.42,37,46,0.100000,0.050000,0.002500
[485],611,558,415,807,301.77,302.29,-1157.98,38,45,0.100000,0.050000,0.002500
[485],632,543,432,812,301.90,302.40,-1181.94,39,45,0.100000,0.050000,0.002500
[485],647,519,432,812,302.06,302.51,-1200.00,40,44,0.100000,0.050000,0.002500
[485],671,512,455,799,302.15,302.63,-1200.00,42,43,0.100000,0.050000,0.002500
[485],711,483,472,755,302.39,302.74,-1200.00,43,43,0.100000,0.050000,0.002500
[485],728,472,462,752,302.45,302.85,-1200.00,43,42,0.100000,0.050000,0.002500
[485],732,472,487,748,302.50,302.96,-1200.00,44,41,0.100000,0.050000,0.002500
[485],752,455,492,711,302.61,303.07,-1200.00,45,40,0.100000,0.050000,0.002500
[485],769,440,504,696,302.76,303.19,-1200.00,45,38,0.100000,0.050000,0.002500
[485],771,448,536,664,302.98,303.30,-1200.00,46,37,0.100000,0.050000,0.002500
[485],796,432,560,639,303.05,303.41,-1200.00,46,36,0.100000,0.050000,0.2500
[485],796,432,574,632,303.18,303.52,-1200.00,46,35,0.100000,0.050000,0.002500
[485],796,432,590,615,303.20,303.64,-1200.00,46,34,0.100000,0.050000,0002500
[485],799,432,604,591,303.33,303.75,-1200.00,46,33,0.100000,0.050000,0.002500
[485],799,432,608,568,303.44,303.86,-1200.00,46,32,0.100000,0.050000,0.002500
[485],799,430,632,551,303.49,303.98,-1025.10,46,30,0.100000,0.050000,0.002500
[485],799,428,664,515,303.68,304.09,-858.40,45,29,0.100000,0.050000,0.002500
[485],775,432,668,496,303.79,304.20,-707.59,45,28,0.100000,0.050000,0.002500
[485],775,440,679,476,303.84,304.31,-567.27,44,27,0.100000,0.050000,0.002500
[485],768,449,696,455,303.97,304.42,-435.14,43,26,0.100000,0.050000,0.002500
[485],739,463,711,444,304.08,304.54,-315.61,43,25,0.100000,0.050000,0.002500
[485],737,462,728,423,304.15,304.65,-206.57,42,24,0.100000,0.050000,0.002500
[485],719,476,743,401,304.26,304.76,-106.83,41,23,0.100000,0.050000,0.002500
[485],704,487,768,384,304.43,304.88,-17.58,40,23,0.100000,0.050000,0.002500
[485],679,504,768,391,304.45,304.99,56.88,38,22,0.100000,0.050000,0.002500
[485],639,527,775,376,304.67,305.10,124.24,37,22,0.100000,0.050000,0.002500
[485],625,543,780,384,304.76,305.21,175.61,36,22,0.100000,0.050000,0.002500
[485],608,560,782,384,304.85,305.32,216.59,35,21,0.100000,0.050000,0.00250
[485],590,574,796,368,304.94,305.44,247.18,34,21,0.100000,0.050000,0.002500
[485],568,583,783,359,305.07,305.55,268.37,33,21,0.100000,0.050000,0.002500
[485],551,604,792,359,305.13,305.66,276.97,32,21,0.100000,0.050000,0.002500
[485],531,615,783,368,305.24,305.77,277.27,30,22,0.100000,0.050000,0.002500
[485],496,639,768,384,305.44,305.89,266.08,29,22,0.100000,0.050000,0.002500
[485],480,659,775,384,305.51,306.00,239.01,28,23,0.100000,0.050000,0.002500
[485],455,671,768,398,305.62,306.11,203.63,27,23,0.100000,0.050000,0.002500
[485],440,689,768,414,305.73,306.23,156.77,26,24,0.100000,0.050000,0.002500
[485],419,705,743,432,305.82,306.34,98.41,25,25,0.100000,0.050000,0.002500
[485],401,719,728,440,305.97,306.45,30.66,24,26,0.100000,0.050000,0.002500
[485],384,736,711,455,306.10,306.56,-50.79,23,27,0.100000,0.050000,0.002500
[485],366,752,679,472,306.25,306.67,-143.83,23,28,0.100000,0.050000,0.002500
[485],364,753,679,504,306.34,306.79,-250.55,22,29,0.100000,0.050000,0.002500
[485],344,768,664,508,306.45,306.90,-367.67,22,30,0.100000,0.050000,0.002500
[485],344,769,639,524,306.52,307.01,-495.29,22,31,0.100000,0.050000,0.002500
[485],344,768,624,543,306.61,307.13,-632.20,21,33,0.100000,0.050000,0.002500
[485],319,787,604,572,306.83,307.24,-779.50,21,34,0.100000,0.050000,0002500
[485],319,792,583,591,306.87,307.35,-942.79,21,35,0.100000,0.050000,0.002500
[485],319,792,575,615,306.94,307.46,-1114.28,21,36,0.100000,0.050000,0.002500
[485],319,792,560,639,307.05,307.57,-1200.00,22,37,0.100000,0.050000,0.002500
[485],344,775,543,655,307.13,307.69,-1200.00,22,38,0.100000,0.050000,0.002500
[485],339,771,527,668,307.20,307.80,-1200.00,23,39,0.100000,0.050000,0.002500
[485],355,768,515,688,307.33,307.91,-1200.00,23,40,0.100000,0.050000,0.002500
[485],355,768,504,705,307.33,308.02,-1200.00,24,42,0.100000,0.050000,0.002500
[485],376,743,463,743,307.60,308.14,-1200.00,25,43,0.100000,0.050000,0.002500
[485],391,732,463,768,307.66,308.25,-1200.00,26,43,0.100000,0.050000,0.002500
[485],409,718,455,768,307.73,308.36,-1200.00,27,44,0.100000,0.050000,0.002500
[485],428,704,449,787,307.84,308.48,-1200.00,28,45,0.100000,0.050000,0.002500
[485],448,688,440,816,307.99,308.59,-1200.00,29,45,0.100000,0.050000,0.002500
[485],463,671,440,816,308.08,308.70,-1200.00,30,46,0.100000,0.050000,0.002500
[485],480,655,415,807,308.14,308.81,-1200.00,31,46,0.100000,0.050000,0.002500
[485],497,639,428,807,308.30,308.92,-1200.00,33,46,0.100000,0.050000,0.002500
[485],536,615,430,807,308.50,309.04,-1161.90,34,46,0.100000,0.050000,0.002500
[485],556,600,423,807,308.58,309.15,-1138.69,35,46,.100000,0.050000,0.002500
[485],575,575,419,807,308.69,309.26,-1125.87,36,46,0.100000,0.050000,0.002500
[485],591,572,432,807,308.80,309.38,-1123.54,37,46,0.100000,0.050000,0.002500
[485],611,556,432,807,308.89,309.49,-1132.71,38,45,0.100000,0.050000,0.002500
[485],632,542,433,812,308.98,309.60,-1152.27,39,45,0.100000,0.050000,0.002500
[485],647,527,448,807,309.11,309.71,-1181.23,40,44,0.100000,0.050000,0.002500
[485],671,513,449,775,309.22,309.82,-1200.00,42,43,0.100000,0.050000,0.002500
[485],711,480,460,752,309.40,309.94,-1200.00,43,43,0.100000,0.050000,0.002500
[485],728,472,476,768,309.48,310.05,-1200.00,43,42,0.100000,0.050000,0.002500
[485],732,463,476,736,309.59,310.16,-1200.00,44,41,0.100000,0.050000,0.002500
[485],752,455,504,728,309.73,310.27,-1200.00,45,40,0.100000,0.050000,0.002500
[485],769,448,515,696,309.88,310.39,-1200.00,45,38,0.100000,0.050000,0.002500
[485],771,448,543,655,309.97,310.50,-1200.00,46,37,0.100000,0.050000,0.002500
[485],796,432,543,639,310.14,310.61,-1200.00,46,36,0.100000,0.050000,0.002500
[485],796,432,574,633,310.28,310.73,-1200.00,46,35,0.100000,0.050000,0.002500
[485],796,432,588,604,310.32,310.84,-1200.00,46,34,0.100000,0.050000,0.002500
[485],798,432,604,600,310.36,310.95,-1200.00,46,33,0.100000,0.050000,0.002500
[485],799,430,632,551,310.58,311.17,-1200.00,46,30,0.100000,0.050000,0.002500
[485],799,428,664,513,310.76,311.29,-1027.81,45,29,0.100000,0.050000,0.002500
[485],775,440,671,494,310.83,311.40,-870.40,45,28,0.100000,0.050000,0.002500
[485],775,440,688,480,310.91,311.51,-721.29,44,27,0.100000,0.050000,0.002500
[485],768,448,704,455,311.04,311.63,-582.58,43,26,0.100000,0.050000,0.002500
[485],739,463,716,448,311.15,311.74,-456.45,43,25,0.100000,0.050000,0.002500
[485],736,463,736,423,311.26,311.85,-340.82,42,24,0.100000,0.050000,0.002500
[485],719,472,739,412,311.44,311.96,-236.69,41,23,0.100000,0.050000,0.002500
[485],704,492,768,399,311.48,312.07,-146.34,40,23,0.100000,0.050000,0.002500
[485],679,504,760,391,311.59,312.19,-64.19,38,22,0.100000,0.050000,0.002500
[485],639,527,769,384,311.79,312.30,6.47,37,22,0.100000,0.050000,0.002500
[485],625,542,768,384,311.86,312.41,62.24,36,22,0.100000,0.050000,0.002500
[485],608,560,783,371,311.95,312.52,108.71,35,21,0.100000,0.050000,0.002500
[485],590,574,796,355,312.03,312.64,144.79,34,21,0.100000,0.050000,0.002500
[485],568,583,792,359,312.14,312.75,171.48,33,21,0.100000,0.050000,0.002500
[485],551,600,783,368,312.28,312.86,186.67,32,21,0.100000,0.050000,0.002500
[485],531,615,783,368,312.34,312.98,190.27,30,22,0.100000,0.050000,0.002500
[485],496,639,775,376,312.56,313.09,184.57,29,22,0.100000,0.050000,0.002500
[485],480,664,775,385,312.63,313.20,161.89,28,23,0.100000,0.050000,0.002500
[485],455,675,768,401,312.76,313.31,130.91,27,23,0.100000,0.050000,0.002500
[485],440,688,743,399,312.85,313.42,87.34,26,24,0.100000,0.050000,0.002500
[485],423,707,743,419,312.91,313.54,33.37,25,25,0.100000,0.050000,0.002500
[485],401,721,728,440,313.11,313.65,-28.89,24,26,0.100000,0.050000,0.002500
[485],384,736,696,451,313.26,313.76,-107.04,23,27,0.100000,0.050000,0.002500
[485],366,752,696,472,313.42,313.88,-197.87,23,28,0.100000,0.050000,0.002500
[485],364,760,684,492,313.42,313.99,-302.40,22,29,0.100000,0.050000,0.002500
[485],348,768,664,519,313.57,314.10,-412.93,22,30,0.100000,0.050000,0.002500
[485],344,771,652,526,313.64,314.21,-536.15,22,31,0.100000,0.050000,0.002500
[485],344,769,624,543,313.75,314.32,-668.67,21,33,0.100000,0.050000,0.002500
[485],323,792,608,575,313.90,314.44,-812.68,21,34,0.100000,0.050000,0.002500
[485],319,792,591,591,313.97,314.55,-969.38,21,35,0.100000,0.050000,0.002500
[485],319,785,568,615,314.06,314.66,-1135.37,21,36,0.100000,0.050000,0.002500
[485],319,792,560,638,314.17,314.77,-1200.00,22,37,0.100000,0.050000,0.002500
[485],339,771,54,654,314.25,314.89,-1200.00,22,38,0.100000,0.050000,0.002500
[485],339,775,527,668,314.34,315.00,-1200.00,23,39,0.100000,0.050000,0.002500
[485],355,768,508,688,314.38,315.11,-1200.00,23,40,0.100000,0.050000,0.002500
