[485],568,768,575,527,2577,2539,0.00,34,46,0.100000,0.050000,0.002500
[485],572,604,728,814,2576,2621,-87.80,46,34,0.100000,0.050000,0.002500
[485],803,334,575,480,2663,2703,-264.51,34,21,0.100000,0.050000,0.002500
[485],572,583,824,344,2740,2785,-266.79,21,34,0.100000,0.050000,0.002500
[485],304,816,591,608,2824,2867,-443.67,34,46,0.100000,0.050000,0.002500
[485],551,601,415,799,2901,2949,-442.84,46,34,0.100000,0.050000,0.002500
[485],803,415,608,583,2984,3031,-616.60,34,21,0.100000,0.050000,0.002500
[485],572,583,799,348,3063,3112,-611.19,21,34,0.100000,0.050000,0.002500
[485],304,817,591,604,3146,3194,-782.58,34,46,0.100000,0.050000,0.002500
[485],551,600,415,803,3224,3276,-775.15,46,34,0.100000,0.050000,0.002500
[485],807,415,608,600,3308,3358,-943.42,34,21,0.100000,0.050000,0.002500
[485],572,588,824,352,3385,3440,-934.72,21,34,0.100000,0.050000,0.002500
[485],305,816,583,600,3470,3522,-1100.61,34,46,0.100000,0.050000,0.002500
[485],551,604,415,807,3548,3604,-1089.89,46,34,0.100000,0.050000,0.002500
[485],807,415,600,583,3631,3686,-1200.00,34,21,0.100000,0.050000,0.002500
[485],569,588,817,359,3706,3768,-1185.81,21,34,0.100000,0.050000,0.002500
[485],307,817,583,604,3792,3850,-1200.00,34,46,0.100000,0.050000,0.002500
[485],551,600,408,807,3869,3932,-1182.69,46,34,0.100000,0.050000,0.002500
[485],812,415,608,583,3953,4014,-1200.00,34,21,0.100000,0.050000,0.002500
[485],569,583,799,352,4029,4096,-1179.21,21,34,0.100000,0.050000,0.002500
[485],307,817,591,604,4113,4177,-1200.00,34,46,0.100000,0.050000,0.002500
[485],556,601,415,807,4190,4259,-1175.00,46,34,0.100000,0.050000,0.002500
[485],807,415,608,583,4273,4341,-1200.00,34,21,0.100000,0.050000,0.002500
[485],572,583,816,352,4349,4423,-1171.52,21,34,0.100000,0.050000,0.002500
[485],312,816,591,604,4433,4505,-1200.00,34,46,0.100000,0.050000,0.002500
[485],556,600,408,807,4510,4587,-1167.30,46,34,0.100000,0.050000,0.002500
[485],807,415,608,588,4597,4669,-1200.00,34,21,0.100000,0.050000,0.002500
[485],572,583,796,352,4673,4751,-1167.13,21,34,0.100000,0.050000,0.002500
[485],312,817,591,604,4754,4833,-1200.00,34,46,0.100000,0.050000,0.002500
[485],556,604,408,807,4834,4915,-1159.61,46,34,0.100000,0.050000,0.002500
[485],807,419,600,588,4917,4997,-1200.00,34,21,0.100000,0.050000,0.002500
[485],572,583,816,352,4995,5079,-1158.34,21,34,0.100000,0.050000,0.002500
[485],312,816,591,611,5078,5160,-1200.00,34,46,0.100000,0.050000,0.002500
[485],556,600,419,807,5153,5242,-1155.22,46,34,0.100000,0.050000,0.002500
[485],812,415,608,600,5238,5324,-1200.00,34,21,0.100000,0.050000,0.002500
[485],572,583,816,352,5317,5406,-1151.75,21,34,0.100000,0.050000,0.002500
[485],312,816,583,600,5401,5488,-1200.00,34,46,0.100000,0.050000,0.002500
[485],551,600,419,807,5477,5570,-1150.83,46,34,0.100000,0.050000,0.002500
[485],812,419,608,600,5561,5652,-1200.00,34,21,0.100000,0.050000,0.002500
[485],568,588,816,352,5641,5734,-1146.25,21,34,0.100000,0.050000,0.002500
[485],312,816,591,604,5720,5816,-1200.00,34,46,0.100000,0.050000,0.002500
[485],551,600,415,807,5800,5898,-1140.94,46,34,0.100000,0.050000,0.002500
[485],812,415,608,583,5887,5980,-1200.00,34,21,0.100000,0.050000,0.002500
[485],568,583,792,352,5965,6062,-1144.06,21,34,0.100000,0.050000,0.002500
[485],312,816,583,600,6049,6144,-1200.00,34,46,0.100000,0.050000,0.002500
[485],556,600,414,807,6128,6225,-1142.04,46,34,0.100000,0.050000,0.002500
[485],812,419,608,583,6213,6307,-1200.00,34,21,0.100000,0.050000,0.002500
[485],572,583,792,352,6293,6389,-1142.96,21,34,0.100000,0.050000,0.002500
[485],312,816,591,600,6373,6471,-1200.00,34,46,0.100000,0.050000,0.002500
[485],556,601,419,807,6455,6553,-1138.74,46,34,0.100000,0.050000,0.002500
[485],812,419,608,590,6540,6635,-1200.00,34,21,0.100000,0.050000,0.002500
[485],572,583,796,352,6623,6717,-1141.86,21,34,0.100000,0.050000,0.002500
[485],312,812,579,600,6708,6799,-1200.00,34,46,0.100000,0.050000,0.002500
[485],556,600,419,807,6787,6881,-1146.43,46,34,0.100000,0.050000,0.002500
[485],812,419,608,588,6872,6963,-1200.00,34,21,0.100000,0.050000,0.002500
[485],572,583,816,352,6954,7045,-1146.25,21,34,0.100000,0.050000,0.002500
[485],312,807,579,600,7041,7127,-1200.00,34,46,0.100000,0.050000,0.002500
[485],551,600,422,807,7120,7208,-1151.92,46,34,0.100000,0.050000,0.002500
[485],812,419,608,588,7208,7290,-1200.00,34,21,0.100000,0.050000,0.002500
[485],572,583,816,352,7291,7372,-1155.04,21,34,0.100000,0.050000,0.002500
[485],312,816,591,600,7376,7454,-1200.00,34,46,0.100000,0.050000,0.002500
[485],556,601,415,807,7457,7536,-1159.61,46,34,0.100000,0.050000,0.002500
[485],812,419,600,583,7545,7618,-1200.00,34,21,0.100000,0.050000,0.002500
[485],568,583,792,352,7628,7700,-1166.03,21,34,0.100000,0.050000,0.002500
[485],312,812,591,604,7714,7782,-1200.00,34,46,0.100000,0.050000,0.002500
[485],551,600,423,807,7796,7864,-1171.70,46,34,0.100000,0.050000,0.002500
[485],812,419,608,595,7883,7946,-1200.00,34,21,0.100000,0.050000,0.002500
[485],572,588,814,352,7967,8028,-1177.02,21,34,0.100000,0.050000,0.002500
[485],312,807,591,609,8055,8110,-1200.00,34,46,0.100000,0.050000,0.002500
[485],551,600,423,807,8136,8192,-1185.98,46,34,0.100000,0.050000,0.002500
[485],812,419,600,583,8227,8273,-1200.00,34,21,0.100000,0.050000,0.002500
[485],572,583,812,348,8309,8355,-1194.59,21,34,0.100000,0.050000,0.002500
[485],312,807,583,604,8396,8437,-1200.00,34,46,0.100000,0.050000,0.002500
[485],556,591,412,807,8476,8519,-1200.00,46,34,0.100000,0.050000,0.002500
[485],812,419,608,600,8568,8601,-1200.00,34,21,0.100000,0.050000,0.002500
[485],568,583,803,352,8650,8683,-1200.00,21,34,0.100000,0.050000,0.002500
[485],312,807,591,609,8736,8765,-1030.06,34,46,0.100000,0.050000,0.002500
[485],551,604,412,807,8816,8847,-1044.61,46,34,0.100000,0.050000,0.002500
[485],812,414,600,583,8907,8929,-876.69,34,21,0.100000,0.050000,0.002500
[485],572,583,812,352,8989,9011,-898.75,21,34,0.100000,0.050000,0.002500
[485],312,807,583,600,9075,9093,-740.90,34,46,0.100000,0.050000,0.002500
[485],551,600,423,807,9158,9175,-767.53,46,34,0.100000,0.050000,0.002500
[485],812,419,600,588,9244,9256,-615.00,34,21,0.100000,0.050000,0.002500
[485],572,590,814,348,9326,9338,-646.95,21,34,0.100000,0.050000,0.002500
[485],312,807,591,600,9410,9420,-498.98,34,46,0.100000,0.050000,0.002500
[485],556,600,423,807,9490,9502,-533.31,46,34,0.100000,0.050000,0.002500
[485],812,419,600,583,9577,9584,-386.26,34,21,0.100000,0.050000,0.002500
[485],572,583,807,352,9661,9666,-424.80,21,34,0.100000,0.050000,0.002500
[485],312,807,591,609,9745,9748,-285.63,34,46,0.100000,0.050000,0.002500
[485],556,600,423,807,9823,9830,-328.74,46,34,0.100000,0.050000,0.002500
[485],812,419,608,583,9911,9912,-187.19,34,21,0.100000,0.050000,0.002500
[485],572,583,807,352,9989,9994,-232.32,21,34,0.100000,0.050000,0.002500
[485],312,807,583,600,10074,10076,-93.15,34,46,0.100000,0.050000,0.002500
[485],556,600,423,807,10154,10158,-137.36,46,34,0.100000,0.050000,0.002500
[485],812,419,600,588,10236,10240,0.89,34,21,0.100000,0.050000,0.002500
[485],572,583,807,359,10317,10321,-40.94,21,34,0.100000,0.050000,0.002500
[485],312,807,591,600,10401,10403,98.23,34,46,0.100000,0.050000,0.002500
[485],556,600,412,807,10480,10485,55.12,46,34,0.100000,0.050000,0.002500
[485],812,419,600,590,10564,10567,194.47,34,21,0.100000,0.050000,0.002500
[485],568,590,816,355,10643,10649,151.54,21,34,0.100000,0.050000,0.002500
[485],312,807,583,600,10727,10731,291.81,34,46,0.100000,0.050000,0.002500
[485],556,600,423,807,10804,10813,249.80,46,34,0.100000,0.050000,0.002500
[485],812,423,608,583,10890,10895,393.54,34,21,0.100000,0.050000,0.002500
[485],572,588,799,352,10965,10977,352.81,21,34,0.100000,0.050000,0.002500
[485],312,807,579,600,11048,11059,499.67,34,46,0.100000,0.050000,0.002500
[485],556,600,415,807,11127,11141,465.35,46,34,0.100000,0.050000,0.002500
[485],812,419,600,583,11208,11223,614.59,34,21,0.100000,0.050000,0.002500
[485],568,583,812,368,11289,11304,584.84,21,34,0.100000,0.050000,0.002500
[485],313,803,591,604,11372,11386,736.10,34,46,0.100000,0.050000,0.002500
[485],551,600,414,803,11449,11468,706.17,46,34,0.100000,0.050000,0.002500
[485],812,423,608,583,11532,11550,860.90,34,21,0.100000,0.050000,0.002500
[485],572,583,803,352,11610,11632,834.45,21,34,0.100000,0.050000,0.002500
[485],312,807,591,600,11691,11714,992.30,34,46,0.100000,0.050000,0.002500
[485],556,600,412,803,11772,11796,971.16,46,34,0.100000,0.050000,0.002500
[485],812,423,608,600,11853,11878,1131.39,34,21,0.100000,0.050000,0.002500
[485],572,583,807,352,11932,11960,1112.62,21,34,0.100000,0.050000,0.002500
[485],312,803,591,601,12013,12042,1200.00,34,46,0.100000,0.050000,0.002500
[485],556,600,423,807,12088,12124,1185.45,46,34,0.100000,0.050000,0.002500
[485],812,423,600,588,12173,12206,1200.00,34,21,0.100000,0.050000,0.002500
[485],569,588,812,348,12251,12288,1190.02,21,34,0.100000,0.050000,0.002500
[485],312,814,591,600,12333,12369,1200.00,34,46,0.100000,0.050000,0.002500
[485],556,600,414,799,12411,12451,1194.24,46,34,0.100000,0.050000,0.002500
[485],812,423,600,583,12493,12533,1200.00,34,21,0.100000,0.050000,0.002500
[485],572,583,807,352,12570,12615,1197.71,21,34,0.100000,0.050000,0.002500
[485],312,803,583,600,12652,12697,1020.83,34,46,0.100000,0.050000,0.002500
[485],556,600,423,807,12729,12779,1023.87,46,34,0.100000,0.050000,0.002500
[485],812,423,608,583,12813,12861,852.30,34,21,0.100000,0.050000,0.002500
[485],572,588,807,359,12889,12943,858.81,21,34,0.100000,0.050000,0.002500
[485],313,807,591,604,12972,13025,691.82,34,46,0.100000,0.050000,0.002500
[485],556,600,412,803,13046,13107,703.64,46,34,0.100000,0.050000,0.002500
[485],812,423,608,583,13128,13189,544.16,34,21,0.100000,0.050000,0.002500
[485],572,588,792,352,13206,13271,564.95,21,34,0.100000,0.050000,0.002500
[485],312,803,579,600,13286,13352,410.04,34,46,0.100000,0.050000,0.002500
[485],556,600,415,807,13363,13434,437.24,46,34,0.100000,0.050000,0.002500
[485],812,423,608,583,13446,13516,289.85,34,21,0.100000,0.050000,0.002500
[485],572,583,807,352,13524,13598,320.52,21,34,0.100000,0.050000,0.002500
[485],316,807,591,604,13604,13680,175.50,34,46,0.100000,0.050000,0.002500
[485],556,600,423,807,13681,13762,212.59,46,34,0.100000,0.050000,0.002500
[485],812,423,600,590,13764,13844,75.09,34,21,0.100000,0.050000,0.002500
[485],569,588,799,355,13842,13926,116.75,21,34,0.100000,0.050000,0.002500
[485],312,803,583,600,13923,14008,-17.29,34,46,0.100000,0.050000,0.002500
[485],556,591,414,807,14001,14090,29.69,46,34,0.100000,0.050000,0.002500
[485],814,423,600,588,14085,14172,-99.02,34,21,0.100000,0.050000,0.002500
[485],572,588,807,355,14164,14254,-49.67,21,34,0.100000,0.050000,0.002500
[485],312,807,591,604,14242,14336,-177.11,34,46,0.100000,0.050000,0.002500
[485],551,604,412,803,14320,14417,-120.25,46,34,0.100000,0.050000,0.002500
[485],812,423,600,588,14405,14499,-239.08,34,21,0.100000,0.050000,0.002500
[485],572,588,812,355,14483,14581,-182.04,21,34,0.100000,0.050000,0.002500
[485],313,803,591,600,14566,14663,-300.69,34,46,0.100000,0.050000,0.002500
[485],556,601,423,807,14646,14745,-240.53,46,34,0.100000,0.050000,0.002500
[485],807,423,600,588,14730,14827,-358.26,34,21,0.100000,0.050000,0.002500
[485],568,588,792,355,14808,14909,-297.92,21,34,0.100000,0.050000,0.002500
[485],316,807,591,600,14892,14991,-413.28,34,46,0.100000,0.050000,0.002500
[485],556,604,412,803,14971,15073,-350.92,46,34,0.100000,0.050000,0.002500
[485],812,423,608,583,15057,15155,-465.35,34,21,0.100000,0.050000,0.002500
[485],572,588,807,352,15135,15237,-403.92,21,34,0.100000,0.050000,0.002500
[485],316,799,591,608,15221,15319,-518.17,34,46,0.100000,0.050000,0.002500
[485],551,601,423,807,15301,15400,-456.91,46,34,0.100000,0.050000,0.002500
[485],812,423,608,600,15388,15482,-573.54,34,21,0.100000,0.050000,0.002500
[485],568,583,807,368,15469,15564,-515.41,21,34,0.100000,0.050000,0.002500
[485],316,803,579,600,15553,15646,-636.25,34,46,0.100000,0.050000,0.002500
[485],556,601,423,807,15631,15728,-579.39,46,34,0.100000,0.050000,0.002500
[485],814,423,600,583,15721,15810,-698.22,34,21,0.100000,0.050000,0.002500
[485],572,583,807,353,15804,15892,-646.67,21,34,0.100000,0.050000,0.002500
[485],316,799,591,608,15887,15974,-776.31,34,46,0.100000,0.050000,0.002500
[485],556,591,414,807,15970,16056,-727.13,46,34,0.100000,0.050000,0.002500
[485],812,423,608,591,16057,16138,-859.15,34,21,0.100000,0.050000,0.002500
[485],569,583,792,353,16140,16220,-816.39,21,34,0.100000,0.050000,0.002500
[485],316,803,583,600,16226,16302,-954.81,34,46,0.100000,0.050000,0.002500
[485],812,423,600,583,9,81,-1057.43,34,21,0.100000,0.050000,0.002500
[485],568,588,792,353,91,163,-1023.46,21,34,0.100000,0.050000,0.002500
[485],316,799,583,600,178,245,-1169.58,34,46,0.100000,0.050000,0.002500
[485],556,600,423,807,260,327,-1141.27,46,34,0.100000,0.050000,0.002500
[485],807,423,608,600,347,409,-1200.00,34,21,0.100000,0.050000,0.002500
[485],568,588,803,353,429,491,-1178.12,21,34,0.100000,0.050000,0.002500
[485],316,803,591,604,515,573,-1200.00,34,46,0.100000,0.050000,0.002500
[485],556,600,414,803,593,655,-1182.69,46,34,0.100000,0.050000,0.002500
[485],812,423,608,583,684,737,-1200.00,34,21,0.100000,0.050000,0.002500
[485],568,583,807,368,761,819,-1188.00,21,34,0.100000,0.050000,0.002500
[485],316,799,591,604,849,901,-1200.00,34,46,0.100000,0.050000,0.002500
[485],556,601,423,807,930,983,-1189.28,46,34,0.100000,0.050000,0.002500
[485],812,423,600,588,1016,1064,-1200.00,34,21,0.100000,0.050000,0.002500
[485],572,588,792,353,1098,1146,-1192.40,21,34,0.100000,0.050000,0.002500
[485],316,803,591,604,1182,1228,-1200.00,34,46,0.100000,0.050000,0.002500
[485],556,600,423,807,1263,1310,-1194.77,46,34,0.100000,0.050000,0.002500
[485],812,423,600,583,1350,1392,-1200.00,34,21,0.100000,0.050000,0.002500
[485],572,583,792,355,1429,1474,-1200.00,21,34,0.100000,0.050000,0.002500
[485],316,799,583,604,1515,1556,-1200.00,34,46,0.100000,0.050000,0.002500
[485],556,600,423,807,1595,1638,-1200.00,46,34,0.100000,0.050000,0.002500
[485],812,423,608,600,1680,1720,-1200.00,34,21,0.100000,0.050000,0.002500
[485],572,583,807,353,1760,1802,-1200.00,21,34,0.100000,0.050000,0.002500
[485],316,799,591,609,1842,1884,-1020.18,34,46,0.100000,0.050000,0.002500
[485],556,604,414,799,1924,1966,-1020.44,46,34,0.100000,0.050000,0.002500
[485],807,423,608,583,2010,2048,-840.44,34,21,0.100000,0.050000,0.002500
[485],572,583,798,355,2088,2129,-844.92,21,34,0.100000,0.050000,0.002500
[485],316,799,591,609,2171,2211,-665.10,34,46,0.100000,0.050000,0.002500
[485],556,600,412,803,2248,2293,-666.46,46,34,0.100000,0.050000,0.002500
[485],812,423,600,583,2333,2375,-842.42,34,21,0.100000,0.050000,0.002500
[485],569,583,803,368,2413,2457,-842.50,21,34,0.100000,0.050000,0.002500
[485],316,799,579,600,2499,2539,-1020.48,34,46,0.100000,0.050000,0.002500
