
[485],812,414,600,588,13,81,90.00,34,21,0.100000,0.050000,0.002500
[485],572,583,824,348,94,163,82.22,21,34,0.100000,0.050000,0.002500
[485],305,819,575,600,179,245,255.45,34,46,0.100000,0.050000,0.002500
[485],551,604,401,807,263,327,245.30,46,34,0.100000,0.050000,0.002500
[485],807,415,608,600,347,409,413.22,34,21,0.100000,0.050000,0.002500
[485],572,583,817,355,431,491,398.85,21,34,0.100000,0.050000,0.002500
[485],305,817,583,604,517,573,562.19,34,46,0.100000,0.050000,0.002500
[485],551,604,415,807,597,655,541.05,46,34,0.100000,0.050000,0.002500
[485],812,412,595,583,685,737,701.28,34,21,0.100000,0.050000,0.002500
[485],569,588,819,352,763,819,674.82,21,34,0.100000,0.050000,0.002500
[485],307,816,591,609,851,901,832.68,34,46,0.100000,0.050000,0.002500
[485],556,604,408,807,934,983,803.85,46,34,0.100000,0.050000,0.002500
[485],812,414,600,590,1018,1064,954.18,34,21,0.100000,0.050000,0.002500
[485],572,583,796,352,1097,1146,922.24,21,34,0.100000,0.050000,0.002500
[485],312,816,591,609,1184,1228,1073.50,34,46,0.100000,0.050000,0.002500
[485],551,604,408,807,1264,1310,1039.17,46,34,0.100000,0.050000,0.002500
[485],812,415,608,600,1351,1392,1187.31,34,21,0.100000,0.050000,0.002500
[485],568,583,817,352,1432,1474,1149.87,21,34,0.100000,0.050000,0.002500
[485],312,816,583,600,1515,1556,1200.00,34,46,0.100000,0.050000,0.002500
[485],551,601,419,807,1595,1638,1162.38,46,34,0.100000,0.050000,0.002500
[485],812,415,608,600,1681,1720,1200.00,34,21,0.100000,0.050000,0.002500
[485],572,588,792,352,1760,1802,1159.26,21,34,0.100000,0.050000,0.002500
[485],312,814,579,600,1846,1884,1200.00,34,46,0.100000,0.050000,0.002500
[485],556,601,415,807,1924,1966,1157.99,46,34,0.100000,0.050000,0.002500
[485],814,419,608,591,2008,2048,1200.00,34,21,0.100000,0.050000,0.002500
[485],572,588,816,359,2088,2129,1160.36,21,34,0.100000,0.050000,0.002500
[485],312,814,591,608,2173,2211,1200.00,34,46,0.100000,0.050000,0.002500
[485],556,600,412,807,2250,2293,1159.09,46,34,0.100000,0.050000,0.002500
[485],814,419,608,583,2334,2375,1200.00,34,21,0.100000,0.050000,0.002500
[485],572,588,803,352,2418,2457,1162.56,21,34,0.100000,0.050000,0.002500
[485],312,814,583,600,2500,2539,1200.00,34,46,0.100000,0.050000,0.002500
[485],556,604,419,807,2581,2621,1160.19,46,34,0.100000,0.050000,0.002500
[485],814,419,600,583,2662,2703,1200.00,34,21,0.100000,0.050000,0.002500
[485],572,583,798,352,2741,2785,1161.46,21,34,0.100000,0.050000,0.002500
[485],312,812,591,604,2825,2867,1200.00,34,46,0.100000,0.050000,0.002500
[485],556,600,419,807,2902,2949,1162.38,46,34,0.100000,0.050000,0.002500
[485],814,419,600,583,2987,3031,1200.00,34,21,0.100000,0.050000,0.002500
[485],572,583,814,352,3065,3112,1164.76,21,34,0.100000,0.050000,0.002500
[485],312,812,591,604,3147,3194,1200.00,34,46,0.100000,0.050000,0.002500
[485],556,600,419,807,3227,3276,1168.97,46,34,0.100000,0.050000,0.002500
[485],814,419,608,583,3310,3358,1200.00,34,21,0.100000,0.050000,0.002500
[485],572,583,812,352,3389,3440,1170.25,21,34,0.100000,0.050000,0.002500
[485],312,807,575,600,3471,3522,1200.00,34,46,0.100000,0.050000,0.002500
[485],551,600,412,807,3549,3604,1173.37,46,34,0.100000,0.050000,0.002500
[485],814,419,600,583,3632,3686,1200.00,34,21,0.100000,0.050000,0.002500
[485],568,583,814,359,3710,3768,1175.74,21,34,0.100000,0.050000,0.002500
[485],312,816,591,595,3794,3850,1200.00,34,46,0.100000,0.050000,0.002500
[485],556,600,419,807,3870,3932,1177.76,46,34,0.100000,0.050000,0.002500
[485],812,419,600,583,3955,4014,1200.00,34,21,0.100000,0.050000,0.002500
[485],572,583,814,366,4031,4096,1181.24,21,34,0.100000,0.050000,0.002500
[485],312,807,579,600,4114,4177,1200.00,34,46,0.100000,0.050000,0.002500
[485],556,600,423,807,4191,4259,1186.55,46,34,0.100000,0.050000,0.002500
[485],814,419,608,583,4275,4341,1200.00,34,21,0.100000,0.050000,0.002500
[485],568,583,792,352,4355,4423,1190.02,21,34,0.100000,0.050000,0.002500
[485],312,807,591,608,4434,4505,1200.00,34,46,0.100000,0.050000,0.002500
[485],556,600,408,803,4512,4587,1195.34,46,34,0.100000,0.050000,0.002500
[485],812,423,608,600,4599,4669,1200.00,34,21,0.100000,0.050000,0.002500
[485],569,583,807,368,4676,4751,1194.42,21,34,0.100000,0.050000,0.002500
[485],312,807,583,600,4756,4833,1200.00,34,46,0.100000,0.050000,0.002500
[485],556,604,419,807,4833,4915,1200.00,46,34,0.100000,0.050000,0.002500
[485],812,419,608,590,4920,4997,1027.34,34,21,0.100000,0.050000,0.002500
[485],568,583,807,352,4997,5079,1028.35,21,34,0.100000,0.050000,0.002500
[485],312,807,583,600,5078,5160,854.77,34,46,0.100000,0.050000,0.002500
[485],556,600,419,807,5156,5242,862.19,46,34,0.100000,0.050000,0.002500
[485],812,423,608,591,5241,5324,693.93,34,21,0.100000,0.050000,0.002500
[485],568,583,812,366,5319,5406,702.63,21,34,0.100000,0.050000,0.002500
[485],312,807,591,600,5401,5488,535.63,34,46,0.100000,0.050000,0.002500
[485],556,600,409,803,5479,5570,548.55,46,34,0.100000,0.050000,0.002500
[485],812,423,608,588,5566,5652,385.78,34,21,0.100000,0.050000,0.002500
[485],569,583,798,352,5642,5734,397.78,21,34,0.100000,0.050000,0.002500
[485],312,807,591,600,5724,5816,236.28,34,46,0.100000,0.050000,0.002500
[485],556,600,412,803,5804,5898,254.69,46,34,0.100000,0.050000,0.002500
[485],814,419,600,588,5892,5980,95.21,34,21,0.100000,0.050000,0.002500
[485],568,583,792,352,5968,6062,108.31,21,34,0.100000,0.050000,0.002500
[485],312,807,591,604,6050,6144,-52.09,34,46,0.100000,0.050000,0.002500
[485],556,600,419,807,6132,6225,-32.58,46,34,0.100000,0.050000,0.002500
[485],812,423,608,583,6214,6307,-193.15,34,21,0.100000,0.050000,0.002500
[485],568,583,792,352,6294,6389,-173.47,21,34,0.100000,0.050000,0.002500
[485],312,803,583,600,6377,6471,-331.67,34,46,0.100000,0.050000,0.002500
[485],551,600,423,807,6457,6553,-311.06,46,34,0.100000,0.050000,0.002500
[485],814,423,600,583,6544,6635,-468.34,34,21,0.100000,0.050000,0.002500
[485],568,583,803,352,6626,6717,-450.85,21,34,0.100000,0.050000,0.002500
[485],312,799,591,608,6711,6799,-613.45,34,46,0.100000,0.050000,0.002500
[485],556,600,423,807,6789,6881,-599.43,46,34,0.100000,0.050000,0.002500
[485],812,423,608,600,6876,6963,-761.10,34,21,0.100000,0.050000,0.002500
[485],572,583,807,352,6957,7045,-749.11,21,34,0.100000,0.050000,0.002500
[485],312,807,591,600,7043,7127,-916.10,34,46,0.100000,0.050000,0.002500
[485],556,601,415,803,7124,7208,-907.57,46,34,0.100000,0.050000,0.002500
[485],812,423,600,583,7209,7290,-1078.04,34,21,0.100000,0.050000,0.002500
[485],572,588,807,359,7292,7372,-1071.53,21,34,0.100000,0.050000,0.002500
[485],316,803,575,600,7382,7454,-1200.00,34,46,0.100000,0.050000,0.002500
[485],556,600,415,807,7463,7536,-1200.00,46,34,0.100000,0.050000,0.002500
[485],812,423,608,588,7547,7618,-1022.20,34,21,0.100000,0.050000,0.002500
[485],572,583,792,353,7629,7700,-1026.68,21,34,0.100000,0.050000,0.002500
[485],313,803,591,604,7720,7782,-851.25,34,46,0.100000,0.050000,0.002500
[485],551,600,414,807,7799,7864,-865.80,46,34,0.100000,0.050000,0.002500
[485],812,419,600,588,7888,7946,-697.88,34,21,0.100000,0.050000,0.002500
[485],569,583,807,352,7971,8028,-717.74,21,34,0.100000,0.050000,0.002500
[485],312,803,591,604,8059,8110,-558.79,34,46,0.100000,0.050000,0.002500
[485],556,600,415,803,8141,8192,-586.52,46,34,0.100000,0.050000,0.002500
[485],812,415,595,583,8228,8273,-433.99,34,21,0.100000,0.050000,0.002500
[485],568,583,807,352,8313,8355,-467.04,21,34,0.100000,0.050000,0.002500
[485],316,799,590,608,8402,8437,-323.47,34,46,0.100000,0.050000,0.002500
[485],551,600,423,807,8481,8519,-367.68,46,34,0.100000,0.050000,0.002500
[485],812,423,601,588,8571,8601,-228.33,34,21,0.100000,0.050000,0.002500
[485],572,588,812,353,8653,8683,-277.85,21,34,0.100000,0.050000,0.002500
[485],316,799,591,604,8741,8765,-147.47,34,46,0.100000,0.050000,0.002500
[485],551,601,423,807,8824,8847,-203.76,46,34,0.100000,0.050000,0.002500
[485],812,423,600,583,8907,8929,-81.99,34,21,0.100000,0.050000,0.002500
[485],568,583,807,368,8991,9011,-141.40,21,34,0.100000,0.050000,0.002500
[485],316,799,591,608,9077,9093,-23.10,34,46,0.100000,0.050000,0.002500
[485],556,600,412,803,9158,9175,-89.28,46,34,0.100000,0.050000,0.002500
[485],807,423,600,583,9249,9256,25.90,34,21,0.100000,0.050000,0.002500
[485],572,583,792,352,9328,9338,-48.90,21,34,0.100000,0.050000,0.002500
[485],316,799,583,600,9416,9420,59.52,34,46,0.100000,0.050000,0.002500
[485],556,600,423,807,9495,9502,-18.75,46,34,0.100000,0.050000,0.002500
[485],812,423,608,600,9580,9584,86.54,34,21,0.100000,0.050000,0.002500
[485],568,583,792,353,9662,9666,8.45,21,34,0.100000,0.050000,0.002500
[485],316,799,590,608,9748,9748,110.27,34,46,0.100000,0.050000,0.002500
[485],556,600,412,803,9828,9830,27.61,46,34,0.100000,0.050000,0.002500
[485],812,423,608,588,9914,9912,126.31,34,21,0.100000,0.050000,0.002500
[485],572,588,807,359,9994,9994,40.53,21,34,0.100000,0.050000,0.002500
[485],316,803,591,604,10079,10076,136.86,34,46,0.100000,0.050000,0.002500
[485],556,600,423,807,10156,10158,49.80,46,34,0.100000,0.050000,0.002500
[485],807,423,600,583,10242,10240,148.51,34,21,0.100000,0.050000,0.002500
[485],572,583,807,359,10318,10321,62.72,21,34,0.100000,0.050000,0.002500
[485],316,799,579,600,10407,10403,163.45,34,46,0.100000,0.050000,0.002500
[485],556,600,423,807,10484,10485,76.39,46,34,0.100000,0.050000,0.002500
[485],814,423,608,583,10566,10567,175.09,34,21,0.100000,0.050000,0.002500
[485],572,588,792,353,10643,10649,93.71,21,34,0.100000,0.050000,0.002500
[485],316,799,591,604,10729,10731,197.72,34,46,0.100000,0.050000,0.002500
[485],556,591,414,803,10808,10813,117.26,46,34,0.100000,0.050000,0.002500
[485],812,423,608,583,10891,10895,219.26,34,21,0.100000,0.050000,0.002500
[485],572,588,807,366,10971,10977,140.07,21,34,0.100000,0.050000,0.002500
[485],313,803,591,604,11051,11059,242.99,34,46,0.100000,0.050000,0.002500
[485],556,601,414,803,11129,11141,168.02,46,34,0.100000,0.050000,0.002500
[485],807,423,608,600,11213,11223,277.71,34,21,0.100000,0.050000,0.002500
[485],568,588,799,352,11292,11304,205.11,21,34,0.100000,0.050000,0.002500
[485],316,807,591,600,11374,11386,315.72,34,46,0.100000,0.050000,0.002500
[485],556,604,415,803,11453,11468,246.24,46,34,0.100000,0.050000,0.002500
[485],807,423,608,588,11538,11550,360.32,34,21,0.100000,0.050000,0.002500
[485],572,588,803,368,11612,11632,291.02,21,34,0.100000,0.050000,0.002500
[485],316,803,591,600,11697,11714,410.42,34,46,0.100000,0.050000,0.002500
[485],556,600,423,807,11773,11796,346.44,46,34,0.100000,0.050000,0.002500
[485],812,423,600,583,11856,11878,468.21,34,21,0.100000,0.050000,0.002500
[485],572,583,799,352,11934,11960,408.79,21,34,0.100000,0.050000,0.002500
[485],316,799,591,604,12016,12042,533.69,34,46,0.100000,0.050000,0.002500
[485],556,604,414,803,12093,12124,478.49,46,34,0.100000,0.050000,0.002500
[485],812,423,600,583,12178,12206,609.05,34,21,0.100000,0.050000,0.002500
[485],572,588,787,353,12254,12288,556.23,21,34,0.100000,0.050000,0.002500
[485],316,803,591,600,12335,12369,689.91,34,46,0.100000,0.050000,0.002500
[485],551,600,423,807,12412,12451,644.60,46,34,0.100000,0.050000,0.002500
[485],812,423,608,583,12495,12533,785.05,34,21,0.100000,0.050000,0.002500
[485],569,583,806,368,12573,12615,744.32,21,34,0.100000,0.050000,0.002500
[485],316,799,591,604,12652,12697,887.89,34,46,0.100000,0.050000,0.002500
[485],556,600,419,803,12732,12779,854.66,46,34,0.100000,0.050000,0.002500
[485],807,423,608,600,12814,12861,1003.90,34,21,0.100000,0.050000,0.002500
[485],568,588,807,355,12888,12943,973.05,21,34,0.100000,0.050000,0.002500
[485],316,799,591,604,12971,13025,1130.90,34,46,0.100000,0.050000,0.002500
[485],556,604,423,807,13048,13107,1107.57,46,34,0.100000,0.050000,0.002500
[485],807,423,608,600,13132,13189,1200.00,34,21,0.100000,0.050000,0.002500
[485],568,588,807,359,13209,13271,1179.04,21,34,0.100000,0.050000,0.002500
[485],316,799,591,604,13290,13352,1200.00,34,46,0.100000,0.050000,0.002500
[485],556,604,414,807,13368,13434,1185.45,46,34,0.100000,0.050000,0.002500
[485],812,423,604,588,13450,13516,1200.00,34,21,0.100000,0.050000,0.002500
[485],572,583,803,353,13527,13598,1190.02,21,34,0.100000,0.050000,0.002500
[485],316,799,591,604,13607,13680,1200.00,34,46,0.100000,0.050000,0.002500
[485],556,604,415,807,13686,13762,1197.54,46,34,0.100000,0.050000,0.002500
[485],807,423,608,583,13767,13844,1018.29,34,21,0.100000,0.050000,0.002500
[485],568,588,792,353,13847,13926,1020.40,21,34,0.100000,0.050000,0.002500
[485],316,799,591,604,13927,14008,844.61,34,46,0.100000,0.050000,0.002500
[485],556,591,415,806,14004,14090,850.94,46,34,0.100000,0.050000,0.002500
[485],812,423,600,588,14084,14172,682.68,34,21,0.100000,0.050000,0.002500
[485],572,588,798,353,14164,14254,695.77,21,34,0.100000,0.050000,0.002500
[485],316,799,591,604,14248,14336,530.98,34,46,0.100000,0.050000,0.002500
[485],556,604,414,807,14326,14417,543.90,46,34,0.100000,0.050000,0.002500
[485],812,423,608,591,14407,14499,381.12,34,21,0.100000,0.050000,0.002500
[485],569,583,803,364,14487,14581,399.71,21,34,0.100000,0.050000,0.002500
[485],316,799,591,600,14569,14663,240.41,34,46,0.100000,0.050000,0.002500
[485],556,604,423,807,14647,14745,261.02,46,34,0.100000,0.050000,0.002500
[485],807,423,608,583,14731,14827,105.94,34,21,0.100000,0.050000,0.002500
[485],568,588,792,355,14813,14909,128.92,21,34,0.100000,0.050000,0.002500
[485],316,799,591,604,14894,14991,-28.18,34,46,0.100000,0.050000,0.002500
[485],556,601,423,807,14974,15073,-4.28,46,34,0.100000,0.050000,0.002500
[485],807,423,608,600,15059,15155,-158.26,34,21,0.100000,0.050000,0.002500
[485],568,588,807,368,15140,15237,-136.38,21,34,0.100000,0.050000,0.002500
[485],316,799,583,600,15223,15319,-293.48,34,46,0.100000,0.050000,0.002500
[485],556,604,414,803,15302,15400,-271.77,46,34,0.100000,0.050000,0.002500
[485],807,423,608,583,15389,15482,-426.86,34,21,0.100000,0.050000,0.002500
[485],568,583,803,359,15473,15564,-407.17,21,34,0.100000,0.050000,0.002500
[485],316,799,591,604,15556,15646,-569.77,34,46,0.100000,0.050000,0.002500
[485],551,600,423,807,15636,15728,-553.55,46,34,0.100000,0.050000,0.002500
[485],807,423,608,583,15723,15810,-715.22,34,21,0.100000,0.050000,0.002500
[485],572,583,807,359,15803,15892,-702.13,21,34,0.100000,0.050000,0.002500
[485],316,799,591,604,15889,15974,-866.92,34,46,0.100000,0.050000,0.002500
[485],556,600,414,803,15970,16056,-856.20,46,34,0.100000,0.050000,0.002500
[485],807,423,600,583,16059,16138,-1024.47,34,21,0.100000,0.050000,0.002500
[485],572,583,803,353,16139,16220,-1021.26,21,34,0.100000,0.050000,0.002500
[485],316,799,591,604,16225,16302,-1195.94,34,46,0.100000,0.050000,0.002500
